78.307748
78.115634
77.983731
77.893727
77.832772
77.792036
77.765621
77.748209
77.737387
77.731941
77.729474
77.729202
77.730054
77.731556
77.733504
77.735680
77.750301
78.015984
79.716692
81.815207
83.584142
85.307510
85.821870
83.417620
81.680184
80.446181
79.578361
78.972305
78.551408
78.260391
78.060277
77.923468
77.830460
77.768182
77.726720
77.700049
77.683357
77.673596
77.668454
77.666390
77.666444
77.667781
77.670041
77.672639
77.675409
77.678390
77.681505
77.684923
77.688343
77.691593
77.694720
